Principal component analysis - the tidyverse way - Pietro's website
…
    6 min read

    Principal component analysis - the tidyverse way

    2018/09/05

PCA with any kind of data

In my daily work I am often asked to perform Principal Component Analysis of various type of -omics data, for example data coming from RNA-Seq.

With this data usually the rows correspond to genes (transcripts, proteins, etc..) while columns are individuals or samples.

For example something like this, where I have mouse proteins in rows and mass spec peak intensities in columns, where each column is a different sample:

## # A tibble: 845 x 5
##    `Peak Name` KC_DMEM_1ug_310… KC_DMEM_1ug_310… KC_DMEM_1ug_310…
##    <chr>                  <dbl>            <dbl>            <dbl>
##  1 sp|P19137|…           92493.          102059.           94617.
##  2 sp|P02469|…          101139.           91133.           90096.
##  3 sp|Q80X90|…          104487.          126150.          113360.
##  4 sp|P02468|…          133946.          219006.          150345.
##  5 sp|P60710|…          479363.          534342.          406184.
##  6 sp|P52480|…          372423.          291951.          381723.
##  7 sp|P16858|…          646268.          674944.          722149.
##  8 sp|Q8BTM8|…          111774.          104019.           83382.
##  9 sp|Q8VHX6-…            5144.            2002.            4573.
## 10 sp|Q68FD5|…           40380.           63811.           40825.
## # … with 835 more rows, and 1 more variable: KC_HFD_1ug_31072018_2 <dbl>
…
    6 min read

    Principal component analysis - the tidyverse way

    2018/09/05

PCA with any kind of data

In my daily work I am often asked to perform Principal Component Analysis of various type of -omics data, for example data coming from RNA-Seq.

With this data usually the rows correspond to genes (transcripts, proteins, etc..) while columns are individuals or samples.

For example something like this, where I have mouse proteins in rows and mass spec peak intensities in columns, where each column is a different sample:

## # A tibble: 845 x 5
##    `Peak Name` KC_DMEM_1ug_310… KC_DMEM_1ug_310… KC_DMEM_1ug_310…
##    <chr>                  <dbl>            <dbl>            <dbl>
##  1 sp|P19137|…           92493.          102059.           94617.
##  2 sp|P02469|…          101139.           91133.           90096.
##  3 sp|Q80X90|…          104487.          126150.          113360.
##  4 sp|P02468|…          133946.          219006.          150345.
##  5 sp|P60710|…          479363.          534342.          406184.
##  6 sp|P52480|…          372423.          291951.          381723.
##  7 sp|P16858|…          646268.          674944.          722149.
##  8 sp|Q8BTM8|…          111774.          104019.           83382.
##  9 sp|Q8VHX6-…            5144.            2002.            4573.
## 10 sp|Q68FD5|…           40380.           63811.           40825.
## # … with 835 more rows, and 1 more variable: KC_HFD_1ug_31072018_2 <dbl>
…
